<svg width="254" height="254" viewBox="0 0 254 254" fill="none" xmlns="http://www.w3.org/2000/svg">
<path d="M182.486 126.857C182.486 128.504 181.91 130.153 180.755 131.477L143.492 174.174C140.94 177.1 136.503 177.4 133.581 174.849C130.658 172.295 130.361 167.855 132.906 164.938L166.137 126.857L132.904 88.7729C130.355 85.8505 130.658 81.4107 133.578 78.8621C136.5 76.3134 140.937 76.6141 143.489 79.5365L180.752 122.237C181.91 123.561 182.486 125.21 182.486 126.857Z" fill="url(#paint0_linear_120_33)"/>
<path d="M182.486 126.857C182.486 130.737 179.342 133.882 175.461 133.882H78.2547C74.3741 133.882 71.2297 130.737 71.2297 126.857C71.2297 122.976 74.3741 119.832 78.2547 119.832H175.461C179.342 119.832 182.486 122.976 182.486 126.857Z" fill="url(#paint1_linear_120_33)"/>
<path d="M253.306 126.857C253.306 196.581 196.581 253.307 126.856 253.307C57.132 253.307 0.406494 196.581 0.406494 126.857C0.406494 57.1322 57.132 0.406738 126.856 0.406738C196.581 0.406738 253.306 57.1322 253.306 126.857ZM14.4565 126.857C14.4565 188.834 64.8791 239.257 126.856 239.257C188.834 239.257 239.256 188.834 239.256 126.857C239.256 64.8794 188.834 14.4567 126.856 14.4567C64.8791 14.4567 14.4565 64.8794 14.4565 126.857Z" fill="url(#paint2_linear_120_33)"/>
<defs>
<linearGradient id="paint0_linear_120_33" x1="156.83" y1="77.1313" x2="156.83" y2="176.582" gradientUnits="userSpaceOnUse">
<stop stop-color="#4BD5FE"/>
<stop offset="1" stop-color="#F486FF"/>
</linearGradient>
<linearGradient id="paint1_linear_120_33" x1="126.858" y1="119.832" x2="126.858" y2="133.882" gradientUnits="userSpaceOnUse">
<stop stop-color="#4BD5FE"/>
<stop offset="1" stop-color="#F486FF"/>
</linearGradient>
<linearGradient id="paint2_linear_120_33" x1="126.856" y1="0.406738" x2="126.856" y2="253.307" gradientUnits="userSpaceOnUse">
<stop stop-color="#4BD5FE"/>
<stop offset="1" stop-color="#F486FF"/>
</linearGradient>
</defs>
</svg>
